Teil 5 Geodaten beschaffen | Spatial Analysis mit R (I)
…
Der Befehl html_table() ermöglicht das Auslesen aller Tabellen auf der Seite. Mithilfe des Befehls str() sehen wir, dass die Seite genau eine Tabelle enthält, welche die Informationen zu den Küstenlängen enthält.

tables <- html_table(reply, fill = TRUE)
str(tables)
## List of 1
##  $ : tibble [266 × 2] (S3: tbl_df/tbl/data.frame)
##   ..$ Country  : chr [1:266] "Afghanistan" "Akrotiri" "Albania" "Algeria" ...
##   ..$ Coastline: chr [1:266] "0 km\n          (landlocked)" "56.3 km" "362 km" "998 km" ...

Durch die Umformung zu einem tibble erhalten wir eine Tabelle mit den gewünschten Informationen:

as_tibble(tables[[1]])
## # A tibble: 266 x 2
##    Country             Coastline                     
##    <chr>               <chr>                         
##  1 Afghanistan         "0 km\n          (landlocked)"
##  2 Akrotiri            "56.3 km"                     
##  3 Albania             "362 km"                      
##  4 Algeria             "998 km"                      
##  5 American Samoa      "116 km"                      
##  6 Andorra             "0 km\n          (landlocked)"
##  7 Angola              "1,600 km"                    
##  8 Anguilla            "61 km"                       
##  9 Antarctica          "17,968 km"                   
## 10 Antigua and Barbuda "153 km"                      
## # … with 256 more rows
…
Auch hier kann alles in einen Befehl gepackt werden:

coast$Coastline %>%
  str_extract("[0-9,.]+ km") %>%
  str_replace_all("[^0-9.]", "") %>%
  as.numeric() -> coast$coast_num

5.5 Datenaufbereitung

Mit dem Befehl arrange() kann die Tabelle sortiert werden. Zunächst auftseigend,

coast %>%
  arrange(coast_num)
## # A tibble: 266 x 3
##    Country     Coastline                                               coast_num
##    <chr>       <chr>                                                       <dbl>
##  1 Afghanistan "0 km\n          (landlocked)"                                  0
##  2 Andorra     "0 km\n          (landlocked)"                                  0
##  3 Armenia     "0 km\n          (landlocked)"                                  0
##  4 Austria     "0 km\n          (landlocked)"                                  0
##  5 Azerbaijan  "0 km\n          (landlocked); note - Azerbaijan borde…         0
##  6 Belarus     "0 km\n          (landlocked)"                                  0
##  7 Bhutan      "0 km\n          (landlocked)"                                  0
##  8 Bolivia     "0 km\n          (landlocked)"                                  0
##  9 Botswana    "0 km\n          (landlocked)"                                  0
## 10 Burkina Fa… "0 km\n          (landlocked)"                                  0
## # … with 256 more rows

und schließlich absteigend, sodass die größten Werte an erster Stelle stehen.

coast %>%
  arrange(desc(coast_num))
## # A tibble: 266 x 3
##    Country      Coastline                                              coast_num
##    <chr>        <chr>                                                      <dbl>
##  1 World        "356,000 km\n          \n          \n        \n\n  \n…   356000 
##  2 Canada       "202,080 km\n          \n          \n        \n\n  \n…   202080 
##  3 Pacific Oce… "135,663 km"                                             135663 
##  4 Atlantic Oc… "111,866 km"                                             111866 
##  5 Indian Ocean "66,526 km"                                               66526 
##  6 European Un… "65,992.9 km"                                             65993.
##  7 Indonesia    "54,716 km"                                               54716 
##  8 Arctic Ocean "45,389 km"                                               45389 
##  9 Greenland    "44,087 km"                                               44087 
## 10 Russia       "37,653 km"                                               37653 
## # … with 256 more rows
…
