Teil 3 Karten erstellen (FTR) | Spatial Analysis mit R (I)
…
Eine neue Messreihe lässt sich z. B. so errechnen:

alter <- 2020 - baumkataster$Pflanzjahr
head(alter)
## [1] 100 100 100 100 100 100

Der Befehl mutate() funktioniert sehr ähnlich, gibt aber den veränderten Datensatz zurück:

mutate(baumkataster, alter = 2020 - Pflanzjahr)
## # A tibble: 118,403 x 8
##    `Gattung/Art/Deutsch… Baumnummer Objekt  Pflanzjahr Kronendurchmess… HOCHWERT
##    <chr>                      <dbl> <chr>        <dbl>            <dbl>    <dbl>
##  1 Platanus x hispanica…          1 Ackerm…       1920                8 5549511.
##  2 Platanus x hispanica…          2 Ackerm…       1920                8 5549517.
##  3 Platanus x hispanica…          3 Ackerm…       1920                8 5549524.
##  4 Platanus x hispanica…          4 Ackerm…       1920                8 5549531 
##  5 Platanus x hispanica…          5 Ackerm…       1920                8 5549538.
##  6 Platanus x hispanica…          6 Ackerm…       1920                8 5549544.
##  7 Platanus x hispanica…          7 Ackerm…       1920                8 5549551.
##  8 Platanus x hispanica…          8 Ackerm…       1920                8 5549557.
##  9 Platanus x hispanica…          9 Ackerm…       1920                8 5549564.
## 10 Platanus x hispanica…         10 Ackerm…       1920                8 5549571.
## # … with 118,393 more rows, and 2 more variables: RECHTSWERT <dbl>, alter <dbl>

Derselbe Befehl mit dem Pipe-Operator:

baumkataster %>%
  mutate(alter = 2020 - Pflanzjahr)
## # A tibble: 118,403 x 8
##    `Gattung/Art/Deutsch… Baumnummer Objekt  Pflanzjahr Kronendurchmess… HOCHWERT
##    <chr>                      <dbl> <chr>        <dbl>            <dbl>    <dbl>
##  1 Platanus x hispanica…          1 Ackerm…       1920                8 5549511.
##  2 Platanus x hispanica…          2 Ackerm…       1920                8 5549517.
##  3 Platanus x hispanica…          3 Ackerm…       1920                8 5549524.
##  4 Platanus x hispanica…          4 Ackerm…       1920                8 5549531 
##  5 Platanus x hispanica…          5 Ackerm…       1920                8 5549538.
##  6 Platanus x hispanica…          6 Ackerm…       1920                8 5549544.
##  7 Platanus x hispanica…          7 Ackerm…       1920                8 5549551.
##  8 Platanus x hispanica…          8 Ackerm…       1920                8 5549557.
##  9 Platanus x hispanica…          9 Ackerm…       1920                8 5549564.
## 10 Platanus x hispanica…         10 Ackerm…       1920                8 5549571.
## # … with 118,393 more rows, and 2 more variables: RECHTSWERT <dbl>, alter <dbl>
…
