Teil 7 Weitere Methoden | Spatial Analysis mit R (I)
…
Ziel soll sein, eine Deutschlandkarte mit Tankstellenpreisen für Diesel zu erstellen.

7.3 Daten einlesen

Das Tankerkönig-Projekt veröffentlicht aktuelle Tankstellenpreise über eine API, und stellt historische Preise hier bereit: https://dev.azure.com/tankerkoenig/_git/tankerkoenig-data

Wir laden die Dateien für prices und stations von einem Tag (hier: 26.5.2019) herunter und speichern sie im Unterordner resources des Projektordners.

Dann können wir sie einlesen:

preise <- read_csv("resources/2019-05-26-prices.csv")
preise

## # A tibble: 231,174 x 8
##    date                station_uuid     diesel    e5   e10 dieselchange e5change
##    <dttm>              <chr>             <dbl> <dbl> <dbl>        <dbl>    <dbl>
##  1 2019-05-25 22:01:06 51e171d0-1a9c-4…   1.37  1.58  1.56            1        1
##  2 2019-05-25 22:02:06 8a796af1-8d78-4…   1.32  1.56  1.54            1        1
##  3 2019-05-25 22:02:06 2d658127-11b5-4…   1.28  1.52  0               0        1
##  4 2019-05-25 22:03:06 904d3a45-df30-4…   1.32  1.54  1.52            1        1
##  5 2019-05-25 22:03:06 a98ed5d0-261b-4…   1.34  1.57  1.55            1        1
##  6 2019-05-25 22:04:06 7671d5ad-4c7d-4…   1.30  1.54  0               1        1
##  7 2019-05-25 22:04:06 44fa4d12-5571-4…   1.34  1.58  1.56            1        1
##  8 2019-05-25 22:04:06 da9abcda-3218-4…   1.38  1.52  1.50            0        1
##  9 2019-05-25 22:04:06 bcba0c2b-fbe7-4…   1.35  1.55  1.53            0        1
## 10 2019-05-25 22:04:06 00061000-0001-4…   1.20  1.48  1.46            1        1
## # … with 231,164 more rows, and 1 more variable: e10change <dbl>
…
Wir orientieren uns einfach an der Börse und nehmen einfach den letzten gültigen Preis (wie der Aktienwert bei Börsenschluss).
Dafür müssen wir den Datensatz erst mit arrange() chronologisch sortieren, dann entsprechend gruppieren und mit last() zusammenfassen:

preise %>%
  arrange(date) %>%
  group_by(station_uuid) %>%
  summarize(dieselpreis = last(diesel),
            e5preis     = last(e5),
            e10preis    = last(e10)) ->
  preise_nach_tankstelle

preise_nach_tankstelle
## # A tibble: 13,701 x 4
##    station_uuid                         dieselpreis e5preis e10preis
##    <chr>                                      <dbl>   <dbl>    <dbl>
##  1 00006210-0037-4444-8888-acdc00006210        1.33    1.55     1.53
##  2 00016899-3247-4444-8888-acdc00000007        1.31    1.53     1.51
##  3 00060001-d387-4444-8888-acdc00000001        1.37    1.62     1.60
##  4 00060009-3adf-4444-8888-acdc00000001        1.35    1.64     1.62
##  5 00060014-b0d9-4444-8888-acdc00000002        1.32    1.61     1.59
##  6 00060015-0090-4444-8888-acdc00000090        1.27    1.52     1.50
##  7 00060016-ed96-4444-8888-acdc00000001        1.35    1.57     1.55
##  8 00060034-0011-4444-8888-acdc00000011        1.37    1.61     1.59
##  9 00060051-533e-75a1-87f9-8a9f00060051        1.25    1.50     1.48
## 10 00060055-0001-4444-8888-acdc00000001        1.26    1.53     1.51
## # … with 13,691 more rows

7.6 Verschneiden

Jetzt haben wir für jede Station nur noch eine Zeile mit den Preisen.
Um das zu kartieren, fehlen noch die Informationen zu den Tankstellen. Dafür laden wir auch den stations-Datensatz für den richtigen Tag herunter und importieren ihn in R:

tankstellen <- read_csv("resources/2019-05-26-stations.csv")
tankstellen

## # A tibble: 15,668 x 11
##    uuid    name    brand  street house_number post_code city  latitude longitude
##    <chr>   <chr>   <chr>  <chr>  <chr>        <chr>     <chr>    <dbl>     <dbl>
##  1 0e18d0… OIL! T… OIL!   Evers… <NA>         80999     Münc…     48.2     11.5 
##  2 ad8122… bft Bo… bft    Godes… 55           53175     Bonn      50.7      7.14
##  3 44e2bd… bft Ta… <NA>   Schel… 53           36304     Alsf…     50.8      9.28
##  4 1a8e4d… Hessol  Hessol Frank… 65           61279     Gräv…     50.4      8.46
##  5 005056… star T… STAR   Leipz… 11           06217     Mers…     51.4     12.0 
##  6 d435f7… ROSDOR… Shell  A7 GÖ… <NA>         37124     Rosd…     51.5      9.88
##  7 88a23d… AVIA T… AVIA   Burgs… 8            63637     Joss…     50.2      9.48
##  8 f0e93f… Aral T… ARAL   Eicke… 357          41063     Mönc…     51.2      6.45
##  9 005056… star T… STAR   Celle… 55           29303     Berg…     52.8      9.97
## 10 8e47dd… Aral T… ARAL   Crail… 32           74532     Ilsh…     49.2      9.93
## # … with 15,658 more rows, and 2 more variables: first_active <dttm>,
## #   openingtimes_json <chr>

Wir verschneiden mit inner_join() unter Angabe der relevanten Spaltennamen und wählen die Spalten aus, mit denen wir weiterarbeiten wollen:

inner_join(preise_nach_tankstelle, tankstellen,
           by = c("station_uuid" = "uuid")) %>%
  select(dieselpreis, e5preis, e10preis, name, brand, latitude, longitude) ->
  preise_geo

preise_geo
## # A tibble: 13,700 x 7
##    dieselpreis e5preis e10preis name              brand       latitude longitude
##          <dbl>   <dbl>    <dbl> <chr>             <chr>          <dbl>     <dbl>
##  1        1.33    1.55     1.53 Beducker - Quali… Beducker        48.6     10.9 
##  2        1.31    1.53     1.51 Röttenbach        BFT Pickel…     49.7     10.9 
##  3        1.37    1.62     1.60 Haisch Mineralöl… TankCenter…     48.0      7.59
##  4        1.35    1.64     1.62 Tank-Kontor Wilh… <NA>            47.9      9.42
##  5        1.32    1.61     1.59 Tank-Kontor Baie… <NA>            47.8      9.65
##  6        1.27    1.52     1.50 Schindele, Lochb… <NA>            47.7      9.53
##  7        1.35    1.57     1.55 bft-Tankstelle H… BFT             48.1      7.78
##  8        1.37    1.61     1.59 EXTROL Tank- & W… EXTROL          48.0      7.79
##  9        1.25    1.50     1.48 Wingenfeld Energ… Wingenfeld…     50.8     10.2 
## 10        1.26    1.53     1.51 Wilhlem Heim GmbH Oel - Heim      48.6      9.03
## # … with 13,690 more rows
…
